{
  "_config": {
      "in": "/global/cscratch1/sd/bfoster/metag/bams.20191015/code/jgi-metaq/bin/test.txt",
      "run_dir": "/global/projectb/scratch/bfoster/metaG/debug/runner.20191017",
      "container":{"bbtools":"bryce911/bbtools:38.44"},
      "s3":"s3://bf-20190725-uswest2-s3-megahit"
  },
    "start": {
	"file": {
	    ":s3:testfile": "setup.json"
	},
	"cmd": [
	    "cp -p {{_config.in}} {{start.file.:s3:testfile}} && sleep 5"
	]
    },
    "remote": {
	"file": {
	    ":s3:test": "remote.test"
	},
	"runner":"asdf",
	"cmd": [
	    "{{:shifter:_config.container.bbtools}} ls {{start.file.:s3:testfile}} > {{remote.file.:s3:test}} && sleep 5 ",
	    "{{:shifter:_config.container.bbtools}} bbmap.sh version 2&1>> {{remote.file.:s3:test}} "
	]
    },
    "lastlocalrunner": {
	"file": {
	    "lastout": "back_again.txt"
	},
	"cmd": [
	    "cp {{remote.file.:s3:test}} {{lastlocalrunner.file.lastout}} && sleep 5"
	]
    }
    
}
