{
    "_config": {
	":s3:infile":"__file__",
	"s3": "s3://bf-20191025-uswest2-s3-metaq",
	"conda3env": "source /global/projectb/sandbox/gaag/bfoster/eclipse2/miniconda3/etc/profile.d/conda.sh && conda activate",
	"jgi-meta_path":"export PATH=/global/projectb/sandbox/gaag/bfoster/eclipse2/repos/jgi-meta/bin:$PATH",
	"run_path":"/global/projectb/scratch/bfoster/metaG/debug/runner.20191017/meta"
	"container":{
	    "spades":"bryce911/spades:3.13.0",
	    "bbtools":"bryce911/bbtools:38.44"
	}
    },
    "in":{
	"file":{
	    ":s3:basename":"s3in.fof",	    
	    ":s3:reads":"in.reads.fastq.gz",
	    ":s3:md5":"in.reads.fastq.gz.md5"
	},
	"runner":"aws-120-12h",
	"cmd": [
	    "#set +o pipefail",
            "#zcat {{_config.:s3:infile}} | head -1000000 | gzip -2 > {{in.file.:s3:reads}}",
	    "ln -s {{_config.:s3:infile}} {{in.file.:s3:reads}}",
	    "echo {{_config.:s3:infile}} | xargs -i basename {} > {{in.file.:s3:basename}}",
	    "md5sum {{in.file.:s3:reads}} > {{in.file.:s3:md5}}"
	]
    },
    "bbcms":{
        "file": {
            ":s3:counts":"counts.metadata.json",
	    ":s3:corrected":"corr.fastq.gz",
	    ":s3:kmerfile":"unique31mer.txt",
	    ":s3:outfile1":"input.corr.left.fastq.gz",
	    ":s3:outfile2":"input.corr.right.fastq.gz",
	    ":s3:readlen":"readlen.txt"
        },
        "param":{"xmx":"-Xmx120g"},
	"runner":"aws-120-12h",
        "cmd":[
	    "{{:docker:_config.container.bbtools}} bbcms.sh {{bbcms.param.xmx}}  metadatafile={{bbcms.file.:s3:counts}} mincount=2 highcountfraction=0.6 in={{in.file.:s3:reads}} out={{bbcms.file.:s3:corrected}} && grep Unique command.bash.e | rev |  cut -f 1 | rev  > {{bbcms.file.:s3:kmerfile}}",
	    "{{:docker:_config.container.bbtools}} reformat.sh {{bbcms.param.xmx}} in={{bbcms.file.:s3:corrected}} out1={{bbcms.file.:s3:outfile1}} out2={{bbcms.file.:s3:outfile2}}",
	    "{{:docker:_config.container.bbtools}} readlength.sh {{bbcms.param.xmx}} in={{bbcms.file.:s3:outfile1}} out={{bbcms.file.:s3:readlen}}"
	]
    },
    "assy":{
	"file":{
	    ":s3:contigs":"spades3/contigs.fasta",
	    ":s3:scaffolds":"spades3/scaffolds.fasta",
	    ":s3:log":"spades3/spades.log"	    
	},
	"param":{"outprefix":"spades3"},
	"runner":"aws-240-24h",
	"cmd":"{{:docker:_config.container.spades}} spades.py -m 2000 -o {{assy.param.outprefix}} --only-assembler -k  33,55,77,99,127  --meta -t $(grep \"model name\" /proc/cpuinfo | wc -l) -1 {{bbcms.file.:s3:outfile1}}  -2 {{bbcms.file.:s3:outfile2}}"
    },
    "create_agp":{
	"file":{
	    ":s3:contigs":"assembly.contigs.fasta",
	    ":s3:scaffolds":"assembly.scaffolds.fasta",
	    ":s3:agp":"assembly.agp",
	    ":s3:legend":"assembly.scaffolds.legend"
	},
        "param":{"xmx":"-Xmx120g"},	
	"runner":"aws-120-12h",
	"cmd":"{{:docker:_config.container.bbtools}} fungalrelease.sh {{create_agp.param.xmx}} in={{assy.file.:s3:scaffolds}} out={{create_agp.file.:s3:scaffolds}} outc={{create_agp.file.:s3:contigs}} agp={{create_agp.file.:s3:agp}} legend={{create_agp.file.:s3:legend}} mincontig=200 minscaf=200 sortscaffolds=t sortcontigs=t overwrite=t"
    },
    "read_mapping_pairs":{
	"file":{
	    ":s3:unsorted":"pairedMapped.bam",
	    ":s3:cov":"covstats.txt",	    
	    ":s3:outsam":"pairedMapped.sam.gz",
	    ":s3:sorted":"pairedMapped_sorted.bam",
	    ":s3:sorted_idx":"pairedMapped_sorted.bam.bai",
	    ":s3:bamscript":"to_bam.sh"

	},
	"param":{"xmx":"-Xmx120g"},
        "runner":"aws-120-12h",
	"cmd":[
	    "{{:docker:_config.container.bbtools}} bbmap.sh {{read_mapping_pairs.param.xmx}} threads=$(grep \"model name\" /proc/cpuinfo | wc -l) nodisk=true interleaved=true ambiguous=random in={{in.file.:s3:reads}} ref={{create_agp.file.:s3:scaffolds}} out={{read_mapping_pairs.file.:s3:unsorted}} covstats={{read_mapping_pairs.file.:s3:cov}} bamscript={{read_mapping_pairs.file.:s3:bamscript}}",
            "{{:docker:_config.container.bbtools}} samtools sort -m100M -@ $(grep \"model name\" /proc/cpuinfo | wc -l) {{read_mapping_pairs.file.:s3:unsorted}} -o {{read_mapping_pairs.file.:s3:sorted}}",
            "{{:docker:_config.container.bbtools}} samtools index {{read_mapping_pairs.file.:s3:sorted}}",
            "{{:docker:_config.container.bbtools}} reformat.sh {{read_mapping_pairs.param.xmx}} in={{read_mapping_pairs.file.:s3:unsorted}} out={{read_mapping_pairs.file.:s3:outsam}} overwrite=true"
  
	]

    },
    "stop_task":{
	"runner":"aws-120-12h",
	"depend":["read_mapping_pairs"],
	"cmd":"/bin/false"
    },
    ":localizebyrunner:aws-120-12h":{"depend":["stop_task"]},    

    "assembly_stats":{
	"file":{
	    "stats_txt":"assembly.scaffolds.fasta.stats.txt",
	    "stats_tsv":"assembly.scaffolds.fasta.stats.tsv"
	},
	"depend":["stop_task"],
	"cmd":[
	    "{{:shifter:_config.container.bbtools}} stats.sh in={{create_agp.file.:s3:scaffolds}} 1>  {{assembly_stats.file.stats_txt}}",
	    "{{:shifter:_config.container.bbtools}} stats.sh format=6 in={{create_agp.file.:s3:scaffolds}} 1>  {{assembly_stats.file.stats_tsv}}"
	]
    }, 
    "pre" : {
	"file": {
	    "setup":"setup.json"
	},
	"depend":["stop_task"],
	"cmd":["/global/projectb/sandbox/gaag/bfoster/eclipse2/repos/jgi-meta/bin/pre_meta_assembly.py $(cat {{in.file.:s3:basename}}) > {{pre.file.setup}}"]
    },
    "report":{
	"file":{"metadata_json":"metadata.json"},
	"depend":[":localizebyrunner:aws-120-12h", "assembly_stats"],
	"cmd":[
	    "sleep 60 ; {{_config.conda3env}}","{{_config.jgi-meta_path}}",	    
	    "report_metag_bbcms_spades.py -i $PWD/../  -j {{pre.file.setup}} -o $PWD"
	]
    },
    "post":{
	"cmd":[
	    "{{_config.conda3env}}","{{_config.jgi-meta_path}}",	    	    
	    "post_meta_assembly.py -i $PWD/.. -j {{report.file.metadata_json}} -o $PWD || post_meta_assembly.py -i $PWD/.. -j {{report.file.metadata_json}} -o $PWD --no_rqc_pdf"
	]
    },
    ":cleanupall:":{}    
}
