{
  "_config": {
      "in": "/global/cscratch1/sd/bfoster/metag/bams.20191015/code/jgi-metaq/bin/test.txt",
      "run_dir": "/global/projectb/scratch/bfoster/metaG/debug/runner.20191017",
      "s3bucket": "s3://bf-20190725-uswest2-s3-megahit",
      "s3bucket_prefix": "s3://bf-20190725-uswest2-s3-megahit/5da901fbf2f57b6eec67e06c",
      "container":{"bbtools":"bryce911/bbtools:38.44"}
      
  },
  "stage": {
    "file": {
      "s3out_testfile": "setup.json"
    },
    "cmd": [
	"cp -p {{_config.in}} {{stage.file.s3out_testfile}}",
	"{{:shifter:_config.container.bbtools}} ls {{stage.file.s3out_testfile}}"	
    ]
  },
  "stage2": {
    "file": {
      "s3out_test": "stage2.test"
    },
    "cmd": [
      "cat  {{stage.file.s3out_testfile}} > {{stage2.file.s3out_test}}"
    ]
  },
  "back_home": {
    "file": {
      "home_file": "back_again.txt"
    },
    "cmd": [
      "cp {{stage2.file.s3out_test}} {{back_home.file.home_file}}"
    ]
  }
    
}
